﻿{
  "x-generator": "NSwag v13.1.2.0 (NJsonSchema v10.0.24.0 (Newtonsoft.Json v12.0.0.0))",
  "openapi": "3.0.0",
  "info": {
    "title": "PTTGC.GR.Report API",
    "version": "1.0.0"
  },
  "paths": {
    "/api/ReportTypes": {
      "get": {
        "tags": [
          "ReportTypes"
        ],
        "operationId": "ReportTypes_GetAll",
        "responses": {
          "200": {
            "description": "",
            "content": {
              "application/json": {
                "schema": {
                  "$ref": "#/components/schemas/ReportTypesListVm"
                }
              }
            }
          }
        },
        "security": [
          {
            "JWT": []
          }
        ]
      },
      "post": {
        "tags": [
          "ReportTypes"
        ],
        "operationId": "ReportTypes_Create",
        "requestBody": {
          "x-name": "command",
          "content": {
            "application/json": {
              "schema": {
                "$ref": "#/components/schemas/CreateReportTypeCommand"
              }
            }
          },
          "required": true,
          "x-position": 1
        },
        "responses": {
          "200": {
            "description": "",
            "content": {
              "application/json": {
                "schema": {
                  "type": "integer",
                  "format": "int64"
                }
              }
            }
          }
        },
        "security": [
          {
            "JWT": []
          }
        ]
      }
    },
    "/api/ReportTypes/{id}": {
      "get": {
        "tags": [
          "ReportTypes"
        ],
        "operationId": "ReportTypes_Get",
        "parameters": [
          {
            "name": "id",
            "in": "path",
            "required": true,
            "schema": {
              "type": "integer",
              "format": "int64"
            },
            "x-position": 1
          }
        ],
        "responses": {
          "200": {
            "description": "",
            "content": {
              "application/json": {
                "schema": {
                  "$ref": "#/components/schemas/ReportTypeVm"
                }
              }
            }
          }
        },
        "security": [
          {
            "JWT": []
          }
        ]
      },
      "put": {
        "tags": [
          "ReportTypes"
        ],
        "operationId": "ReportTypes_Update",
        "parameters": [
          {
            "name": "id",
            "in": "path",
            "required": true,
            "schema": {
              "type": "integer",
              "format": "int64"
            },
            "x-position": 1
          }
        ],
        "requestBody": {
          "x-name": "command",
          "content": {
            "application/json": {
              "schema": {
                "$ref": "#/components/schemas/UpdateReportTypeCommand"
              }
            }
          },
          "required": true,
          "x-position": 2
        },
        "responses": {
          "200": {
            "description": "",
            "content": {
              "application/octet-stream": {
                "schema": {
                  "type": "string",
                  "format": "binary"
                }
              }
            }
          }
        },
        "security": [
          {
            "JWT": []
          }
        ]
      },
      "delete": {
        "tags": [
          "ReportTypes"
        ],
        "operationId": "ReportTypes_Delete",
        "parameters": [
          {
            "name": "id",
            "in": "path",
            "required": true,
            "schema": {
              "type": "integer",
              "format": "int64"
            },
            "x-position": 1
          }
        ],
        "responses": {
          "200": {
            "description": "",
            "content": {
              "application/octet-stream": {
                "schema": {
                  "type": "string",
                  "format": "binary"
                }
              }
            }
          }
        },
        "security": [
          {
            "JWT": []
          }
        ]
      }
    },
    "/api/ReportTypes/GetConfig/{id}": {
      "get": {
        "tags": [
          "ReportTypes"
        ],
        "operationId": "ReportTypes_GetConfig",
        "parameters": [
          {
            "name": "id",
            "in": "path",
            "required": true,
            "schema": {
              "type": "integer",
              "format": "int64"
            },
            "x-position": 1
          }
        ],
        "responses": {
          "200": {
            "description": "",
            "content": {
              "application/json": {
                "schema": {
                  "$ref": "#/components/schemas/ReportTypeConfig"
                }
              }
            }
          }
        },
        "security": [
          {
            "JWT": []
          }
        ]
      }
    },
    "/api/ReportTypes/GetSourceConfig/{reportId}": {
      "get": {
        "tags": [
          "ReportTypes"
        ],
        "operationId": "ReportTypes_GetSourceConfig",
        "parameters": [
          {
            "name": "reportId",
            "in": "path",
            "required": true,
            "schema": {
              "type": "integer",
              "format": "int64"
            },
            "x-position": 1
          }
        ],
        "responses": {
          "200": {
            "description": "",
            "content": {
              "application/json": {
                "schema": {
                  "$ref": "#/components/schemas/SourceConfigList"
                }
              }
            }
          }
        },
        "security": [
          {
            "JWT": []
          }
        ]
      }
    },
    "/api/SourceFile/Validate/{type}": {
      "post": {
        "tags": [
          "SourceFile"
        ],
        "operationId": "SourceFile_Validate",
        "parameters": [
          {
            "name": "type",
            "in": "path",
            "required": true,
            "schema": {
              "type": "integer",
              "format": "int32"
            },
            "x-position": 1
          },
          {
            "type": "file",
            "name": "files",
            "in": "formData",
            "collectionFormat": "multi",
            "schema": {
              "type": "array",
              "nullable": true,
              "items": {
                "type": "string",
                "format": "binary"
              }
            },
            "nullable": true
          }
        ],
        "responses": {
          "200": {
            "description": "",
            "content": {
              "application/json": {
                "schema": {
                  "$ref": "#/components/schemas/SourceConfigList"
                }
              }
            }
          }
        },
        "security": [
          {
            "JWT": []
          }
        ]
      }
    },
    "/api/SourceFile/GenerateReport/{type}": {
      "post": {
        "tags": [
          "SourceFile"
        ],
        "operationId": "SourceFile_GenerateReport",
        "parameters": [
          {
            "name": "type",
            "in": "path",
            "required": true,
            "schema": {
              "type": "integer",
              "format": "int32"
            },
            "x-position": 1
          },
          {
            "type": "file",
            "name": "files",
            "in": "formData",
            "collectionFormat": "multi",
            "schema": {
              "type": "array",
              "nullable": true,
              "items": {
                "type": "string",
                "format": "binary"
              }
            },
            "nullable": true
          }
        ],
        "responses": {
          "200": {
            "description": "",
            "content": {
              "application/json": {
                "schema": {
                  "$ref": "#/components/schemas/SourceConfig"
                }
              }
            }
          }
        },
        "security": [
          {
            "JWT": []
          }
        ]
      }
    },
    "/api/TodoItems": {
      "get": {
        "tags": [
          "TodoItems"
        ],
        "operationId": "TodoItems_GetAll",
        "responses": {
          "200": {
            "description": "",
            "content": {
              "application/json": {
                "schema": {
                  "$ref": "#/components/schemas/TodoItemsListVm"
                }
              }
            }
          }
        },
        "security": [
          {
            "JWT": []
          }
        ]
      },
      "post": {
        "tags": [
          "TodoItems"
        ],
        "operationId": "TodoItems_Create",
        "requestBody": {
          "x-name": "command",
          "content": {
            "application/json": {
              "schema": {
                "$ref": "#/components/schemas/CreateTodoItemCommand"
              }
            }
          },
          "required": true,
          "x-position": 1
        },
        "responses": {
          "200": {
            "description": "",
            "content": {
              "application/json": {
                "schema": {
                  "type": "integer",
                  "format": "int64"
                }
              }
            }
          }
        },
        "security": [
          {
            "JWT": []
          }
        ]
      }
    },
    "/api/TodoItems/{id}": {
      "get": {
        "tags": [
          "TodoItems"
        ],
        "operationId": "TodoItems_Get",
        "parameters": [
          {
            "name": "id",
            "in": "path",
            "required": true,
            "schema": {
              "type": "integer",
              "format": "int64"
            },
            "x-position": 1
          }
        ],
        "responses": {
          "200": {
            "description": "",
            "content": {
              "application/json": {
                "schema": {
                  "$ref": "#/components/schemas/TodoItemVm"
                }
              }
            }
          }
        },
        "security": [
          {
            "JWT": []
          }
        ]
      },
      "put": {
        "tags": [
          "TodoItems"
        ],
        "operationId": "TodoItems_Update",
        "parameters": [
          {
            "name": "id",
            "in": "path",
            "required": true,
            "schema": {
              "type": "integer",
              "format": "int64"
            },
            "x-position": 1
          }
        ],
        "requestBody": {
          "x-name": "command",
          "content": {
            "application/json": {
              "schema": {
                "$ref": "#/components/schemas/UpdateTodoItemCommand"
              }
            }
          },
          "required": true,
          "x-position": 2
        },
        "responses": {
          "200": {
            "description": "",
            "content": {
              "application/octet-stream": {
                "schema": {
                  "type": "string",
                  "format": "binary"
                }
              }
            }
          }
        },
        "security": [
          {
            "JWT": []
          }
        ]
      },
      "delete": {
        "tags": [
          "TodoItems"
        ],
        "operationId": "TodoItems_Delete",
        "parameters": [
          {
            "name": "id",
            "in": "path",
            "required": true,
            "schema": {
              "type": "integer",
              "format": "int64"
            },
            "x-position": 1
          }
        ],
        "responses": {
          "200": {
            "description": "",
            "content": {
              "application/octet-stream": {
                "schema": {
                  "type": "string",
                  "format": "binary"
                }
              }
            }
          }
        },
        "security": [
          {
            "JWT": []
          }
        ]
      }
    },
    "/api/TodoItems/Download": {
      "get": {
        "tags": [
          "TodoItems"
        ],
        "operationId": "TodoItems_Download",
        "responses": {
          "200": {
            "description": "",
            "content": {
              "application/octet-stream": {
                "schema": {
                  "type": "string",
                  "format": "binary"
                }
              }
            }
          }
        },
        "security": [
          {
            "JWT": []
          }
        ]
      }
    },
    "/api/UploadInfos": {
      "get": {
        "tags": [
          "UploadInfos"
        ],
        "operationId": "UploadInfos_GetAll",
        "responses": {
          "200": {
            "description": "",
            "content": {
              "application/json": {
                "schema": {
                  "$ref": "#/components/schemas/UploadInfosListVm"
                }
              }
            }
          }
        },
        "security": [
          {
            "JWT": []
          }
        ]
      }
    },
    "/api/UploadInfos/ReportType/{type}": {
      "get": {
        "tags": [
          "UploadInfos"
        ],
        "operationId": "UploadInfos_GetByType",
        "parameters": [
          {
            "name": "type",
            "in": "path",
            "required": true,
            "schema": {
              "type": "integer",
              "format": "int32"
            },
            "x-position": 1
          }
        ],
        "responses": {
          "200": {
            "description": "",
            "content": {
              "application/json": {
                "schema": {
                  "$ref": "#/components/schemas/UploadInfosListVm"
                }
              }
            }
          }
        },
        "security": [
          {
            "JWT": []
          }
        ]
      }
    },
    "/api/UploadInfos/{id}": {
      "get": {
        "tags": [
          "UploadInfos"
        ],
        "operationId": "UploadInfos_Get",
        "parameters": [
          {
            "name": "id",
            "in": "path",
            "required": true,
            "schema": {
              "type": "integer",
              "format": "int64"
            },
            "x-position": 1
          }
        ],
        "responses": {
          "200": {
            "description": "",
            "content": {
              "application/json": {
                "schema": {
                  "$ref": "#/components/schemas/UploadInfoVm"
                }
              }
            }
          }
        },
        "security": [
          {
            "JWT": []
          }
        ]
      }
    },
    "/api/WeatherForecast": {
      "get": {
        "tags": [
          "WeatherForecast"
        ],
        "operationId": "WeatherForecast_Get",
        "responses": {
          "200": {
            "description": "",
            "content": {
              "application/json": {
                "schema": {
                  "type": "array",
                  "items": {
                    "$ref": "#/components/schemas/WeatherForecast"
                  }
                }
              }
            }
          }
        },
        "security": [
          {
            "JWT": []
          }
        ]
      }
    }
  },
  "components": {
    "schemas": {
      "ReportTypesListVm": {
        "type": "object",
        "additionalProperties": false,
        "properties": {
          "reportTypes": {
            "type": "array",
            "nullable": true,
            "items": {
              "$ref": "#/components/schemas/ReportTypeDto"
            }
          }
        }
      },
      "ReportTypeDto": {
        "type": "object",
        "additionalProperties": false,
        "properties": {
          "id": {
            "type": "integer",
            "format": "int64"
          },
          "name": {
            "type": "string",
            "nullable": true
          },
          "isActive": {
            "type": "string",
            "nullable": true
          },
          "uploadInfos": {
            "type": "array",
            "nullable": true,
            "items": {
              "$ref": "#/components/schemas/UploadInfo"
            }
          }
        }
      },
      "UploadInfo": {
        "allOf": [
          {
            "$ref": "#/components/schemas/AuditableEntity"
          },
          {
            "type": "object",
            "additionalProperties": false,
            "properties": {
              "id": {
                "type": "integer",
                "format": "int64"
              },
              "reportTypeId": {
                "type": "integer",
                "format": "int64"
              },
              "reportType": {
                "nullable": true,
                "oneOf": [
                  {
                    "$ref": "#/components/schemas/ReportType"
                  }
                ]
              },
              "reportDate": {
                "type": "string",
                "format": "date-time"
              },
              "generateDate": {
                "type": "string",
                "format": "date-time"
              },
              "generateBy": {
                "type": "string",
                "nullable": true
              },
              "status": {
                "type": "integer",
                "format": "int32"
              },
              "remark": {
                "type": "string",
                "nullable": true
              },
              "documentInfos": {
                "type": "array",
                "nullable": true,
                "items": {
                  "$ref": "#/components/schemas/DocumentInfo"
                }
              }
            }
          }
        ]
      },
      "ReportType": {
        "allOf": [
          {
            "$ref": "#/components/schemas/AuditableEntity"
          },
          {
            "type": "object",
            "additionalProperties": false,
            "properties": {
              "id": {
                "type": "integer",
                "format": "int64"
              },
              "name": {
                "type": "string",
                "nullable": true
              },
              "isActive": {
                "type": "boolean"
              },
              "uploadInfos": {
                "type": "array",
                "nullable": true,
                "items": {
                  "$ref": "#/components/schemas/UploadInfo"
                }
              }
            }
          }
        ]
      },
      "AuditableEntity": {
        "type": "object",
        "additionalProperties": false,
        "properties": {
          "createdBy": {
            "type": "string",
            "nullable": true
          },
          "created": {
            "type": "string",
            "format": "date-time"
          },
          "lastModifiedBy": {
            "type": "string",
            "nullable": true
          },
          "lastModified": {
            "type": "string",
            "format": "date-time",
            "nullable": true
          }
        }
      },
      "DocumentInfo": {
        "allOf": [
          {
            "$ref": "#/components/schemas/AuditableEntity"
          },
          {
            "type": "object",
            "additionalProperties": false,
            "properties": {
              "id": {
                "type": "integer",
                "format": "int64"
              },
              "name": {
                "type": "string",
                "nullable": true
              },
              "data": {
                "type": "string",
                "format": "byte",
                "nullable": true
              },
              "status": {
                "type": "integer",
                "format": "int32"
              },
              "uploadInfoId": {
                "type": "integer",
                "format": "int64"
              },
              "uploadInfo": {
                "nullable": true,
                "oneOf": [
                  {
                    "$ref": "#/components/schemas/UploadInfo"
                  }
                ]
              }
            }
          }
        ]
      },
      "ReportTypeVm": {
        "type": "object",
        "additionalProperties": false,
        "properties": {
          "id": {
            "type": "integer",
            "format": "int64"
          },
          "name": {
            "type": "string",
            "nullable": true
          },
          "isActive": {
            "type": "string",
            "nullable": true
          },
          "uploadInfos": {
            "type": "array",
            "nullable": true,
            "items": {
              "$ref": "#/components/schemas/UploadInfo"
            }
          }
        }
      },
      "CreateReportTypeCommand": {
        "type": "object",
        "additionalProperties": false,
        "properties": {
          "name": {
            "type": "string",
            "nullable": true
          }
        }
      },
      "UpdateReportTypeCommand": {
        "type": "object",
        "additionalProperties": false,
        "properties": {
          "id": {
            "type": "integer",
            "format": "int64"
          },
          "name": {
            "type": "string",
            "nullable": true
          },
          "isActive": {
            "type": "boolean"
          }
        }
      },
      "ReportTypeConfig": {
        "type": "object",
        "additionalProperties": false,
        "properties": {
          "id": {
            "type": "integer",
            "format": "int32"
          },
          "sourceFileConfigs": {
            "type": "array",
            "nullable": true,
            "items": {
              "$ref": "#/components/schemas/SourceConfig"
            }
          },
          "templateOutput": {
            "type": "string",
            "nullable": true
          },
          "calculateFile": {
            "type": "string",
            "nullable": true
          },
          "destinationFile": {
            "type": "string",
            "nullable": true
          }
        }
      },
      "SourceConfig": {
        "type": "object",
        "additionalProperties": false,
        "properties": {
          "fileName": {
            "type": "string",
            "nullable": true
          },
          "isValid": {
            "type": "boolean"
          },
          "description": {
            "type": "string",
            "nullable": true
          },
          "validMessage": {
            "type": "string",
            "nullable": true
          },
          "validateFile": {
            "type": "string",
            "nullable": true
          },
          "report": {
            "type": "string",
            "format": "byte",
            "nullable": true
          }
        }
      },
      "SourceConfigList": {
        "type": "object",
        "additionalProperties": false,
        "properties": {
          "sourceFileConfigs": {
            "type": "array",
            "nullable": true,
            "items": {
              "$ref": "#/components/schemas/SourceConfig"
            }
          }
        }
      },
      "TodoItemsListVm": {
        "type": "object",
        "additionalProperties": false,
        "properties": {
          "todoItems": {
            "type": "array",
            "nullable": true,
            "items": {
              "$ref": "#/components/schemas/TodoItemDto"
            }
          }
        }
      },
      "TodoItemDto": {
        "type": "object",
        "additionalProperties": false,
        "properties": {
          "id": {
            "type": "integer",
            "format": "int64"
          },
          "name": {
            "type": "string",
            "nullable": true
          },
          "isComplete": {
            "type": "boolean"
          }
        }
      },
      "TodoItemVm": {
        "type": "object",
        "additionalProperties": false,
        "properties": {
          "id": {
            "type": "integer",
            "format": "int64"
          },
          "name": {
            "type": "string",
            "nullable": true
          },
          "isComplete": {
            "type": "boolean"
          }
        }
      },
      "CreateTodoItemCommand": {
        "type": "object",
        "additionalProperties": false,
        "properties": {
          "name": {
            "type": "string",
            "nullable": true
          }
        }
      },
      "UpdateTodoItemCommand": {
        "type": "object",
        "additionalProperties": false,
        "properties": {
          "id": {
            "type": "integer",
            "format": "int64"
          },
          "name": {
            "type": "string",
            "nullable": true
          },
          "isComplete": {
            "type": "boolean"
          }
        }
      },
      "UploadInfosListVm": {
        "type": "object",
        "additionalProperties": false,
        "properties": {
          "uploadInfos": {
            "type": "array",
            "nullable": true,
            "items": {
              "$ref": "#/components/schemas/UploadInfoDto"
            }
          }
        }
      },
      "UploadInfoDto": {
        "type": "object",
        "additionalProperties": false,
        "properties": {
          "id": {
            "type": "integer",
            "format": "int64"
          },
          "reportTypeId": {
            "type": "integer",
            "format": "int64"
          },
          "reportType": {
            "nullable": true,
            "oneOf": [
              {
                "$ref": "#/components/schemas/ReportType"
              }
            ]
          },
          "reportDate": {
            "type": "string",
            "format": "date-time"
          },
          "generateDate": {
            "type": "string",
            "format": "date-time"
          },
          "generateBy": {
            "type": "string",
            "nullable": true
          },
          "status": {
            "type": "integer",
            "format": "int32"
          },
          "remark": {
            "type": "string",
            "nullable": true
          },
          "documentInfos": {
            "type": "array",
            "nullable": true,
            "items": {
              "$ref": "#/components/schemas/DocumentInfo"
            }
          }
        }
      },
      "UploadInfoVm": {
        "type": "object",
        "additionalProperties": false,
        "properties": {
          "id": {
            "type": "integer",
            "format": "int64"
          },
          "reportTypeId": {
            "type": "integer",
            "format": "int64"
          },
          "reportType": {
            "nullable": true,
            "oneOf": [
              {
                "$ref": "#/components/schemas/ReportType"
              }
            ]
          },
          "reportDate": {
            "type": "string",
            "format": "date-time"
          },
          "generateDate": {
            "type": "string",
            "format": "date-time"
          },
          "generateBy": {
            "type": "string",
            "nullable": true
          },
          "status": {
            "type": "integer",
            "format": "int32"
          },
          "remark": {
            "type": "string",
            "nullable": true
          },
          "documentInfos": {
            "type": "array",
            "nullable": true,
            "items": {
              "$ref": "#/components/schemas/DocumentInfo"
            }
          }
        }
      },
      "WeatherForecast": {
        "type": "object",
        "additionalProperties": false,
        "properties": {
          "date": {
            "type": "string",
            "format": "date-time"
          },
          "temperatureC": {
            "type": "integer",
            "format": "int32"
          },
          "temperatureF": {
            "type": "integer",
            "format": "int32"
          },
          "summary": {
            "type": "string",
            "nullable": true
          }
        }
      }
    },
    "securitySchemes": {
      "JWT": {
        "type": "apiKey",
        "description": "Type into the textbox: Bearer {your JWT token}.",
        "name": "Authorization",
        "in": "header"
      }
    }
  },
  "security": [
    {
      "JWT": []
    }
  ]
}